// Jest Snapshot v1, https://goo.gl/fbAQLP

exports[`Snapshot testing render search box correctly with no value 1`] = `
<WithStyles(ForwardRef(Input))
  aria-describedby="weight-helper-text"
  className="search-box"
  id="adornment-weight"
  onChange={[MockFunction]}
  placeholder="Search..."
  startAdornment={
    <ForwardRef(WithStyles)
      position="start"
    >
      <Memo(SearchIcon) />
    </ForwardRef(WithStyles)>
  }
  value=""
/>
`;

exports[`Snapshot testing render search box correctly with value 1`] = `
<WithStyles(ForwardRef(Input))
  aria-describedby="weight-helper-text"
  className="search-box"
  id="adornment-weight"
  onChange={[MockFunction]}
  placeholder="Search..."
  startAdornment={
    <ForwardRef(WithStyles)
      position="start"
    >
      <Memo(SearchIcon) />
    </ForwardRef(WithStyles)>
  }
  value="Test"
/>
`;
